// Jest Snapshot v1, https://goo.gl/fbAQLP

exports[`invoice-item should render the component 1`] = `
<div
  className="invoice-item"
>
  <input
    defaultValue="Test"
    name="name"
    onChange={[Function]}
    placeholder="Type item name here..."
  />
  <input
    defaultValue={1}
    name="quantity"
    onChange={[Function]}
    placeholder="0"
  />
  <span>
    $ 
    <input
      defaultValue={24}
      name="price"
      onChange={[Function]}
      placeholder="0.00"
    />
  </span>
  <div
    className="item-total"
  >
    $ 
    24
  </div>
  <button
    className="delete-button"
    onClick={[MockFunction]}
  >
    X
  </button>
</div>
`;
